<svg xmlns="http://www.w3.org/2000/svg" height="103" width="114">
    <defs>
        <clipPath id="a" clipPathUnits="userSpaceOnUse">
            <circle cx="200" cy="200" r="200" fill="#e3e3e3" stroke-width="3.76"/>
        </clipPath>
    </defs>
    <g transform="scale(.2522)">
        <circle cy="200" cx="200" r="200" fill="#e3e3e3"/>
        <path clip-path="url(#a)" d="M117.168 28.329c-.517 5.296-.495 5.336 3.346 6.113 2.874.581 5.603 2.345 6.729 4.35 1.651 2.936 5.46 3.39 7.897.941 2.832-2.846 4.69-3.732 7.838-3.739 3.292-.007 3.334-.029 4.719-2.427 1.323-2.291 3.826-4.583 5.923-5.422 1.683-.673 2.38-1.532 2.38-2.932 0-4.183 2.624-5.893 9.4-6.125 6.348-.217 8.27-.735 10.628-2.866 2.807-2.535 3.583-2.761 7.041-2.046 5.946 1.23 10.555.89 13.448-.99 3.842-2.496 5.16-2.765 7.427-1.515 1.021.563 2.373 1.146 3.005 1.296.633.15 2.59 1.254 4.351 2.453l3.201 2.18 4.25.018c5.152.022 6.841.728 9.177 3.837.844 1.124 2.511 3.164 3.703 4.536l2.169 2.492 5.104-.256 5.104-.257.394 1.034c.287.755.232 1.42-.205 2.464-.864 2.069-.756 2.506.776 3.146.755.316 1.496.774 1.647 1.019 1.953 3.159 8.98 3.572 8.98.527 0-3.343 3.541-5.168 6.005-3.094 1.349 1.135 1.358 1.228.538 5.991-.183 1.064-.001 1.452 1.179 2.527.768.698 2.235 2.691 3.261 4.429 2.272 3.847 2.948 4.097 7.573 2.799l3.056-.857 2.999.822c2.026.556 4.203.823 6.715.823 6.359 0 13.874 5.617 13.874 10.371 0 2.587-4.312 4.533-5.397 2.435-3.371-6.52-10.403-4.799-10.403 2.546 0 3.049-.14 3.234-2.76 3.656-3.146.506-4.726 3.491-3.244 6.13.328.584 1.032 2.232 1.565 3.662 2.819 7.57 3.11 8.095 6.123 11.022 2.291 2.226 3.065 3.286 3.661 5.019 1.724 5.01 3.975 7.649 8.387 9.83 2.745 1.358 4.262 2.897 4.949 5.025 1.221 3.779 6.474 4.917 7.53 1.631.716-2.229 1.421-2.835 3.892-3.348 4.588-.953 5.294-3.632 1.565-5.937-1.338-.827-2.45-2.574-2.832-4.45-.441-2.168-2.559-4.64-5.137-5.998-8.603-4.531-11.424-8.357-8.399-11.386 3.029-3.034 4.323-2.716 13.392 3.285 5.225 3.458 7.686 2.577 6.697-2.398-1.204-6.055 3.097-8.526 7.662-4.402 2.781 2.513 3.346 4.702 2.196 8.507-.61 2.02-.4 2.928 1.147 4.957 1.305 1.711 1.269 2.863-.178 5.612-1.227 2.334-1.227 2.517.027 5.327 2.088 4.677.147 9.002-3.59 8.001-3.272-.876-4.853.673-4.853 4.758 0 3.16.931 4.466 3.671 5.15 1.487.371 2.188 1.312 2.435 3.268.377 2.994 1.976 5.825 4.218 7.471 5.476 4.02 7.614 9.926 5.511 15.225-2.092 5.27-1.733 8.229 1.322 10.885 1.998 1.737 2.014 4.243.055 8.546-2.931 6.437-2.252 9.915 3.163 16.2 3.576 4.152 8.603 4.642 12.425 1.212a87.975 87.975 0 0 1 3.354-2.806c3.217-2.549 4.299-5.388 4.63-12.15.319-6.512 1.821-10.258 4.987-12.436 2.157-1.484 4.769-4.341 5.78-6.323.478-.938 1.264-1.761 1.928-2.02 1.591-.62 8.843-2.077 10.341-2.077 1.383 0 15.303-4.763 16.676-7.265 69.9-157.72-130.27-281.348-302.105-172.657m30.824 84.792c-.762.218-1.886.753-2.497 1.188-1.625 1.158-3.682 1.389-4.952.556-2.84-1.861-6.475 1.598-8.707 8.286-.607 1.816-3.749.081-5.263-2.907-2.42-4.777-6.196-4.27-6.196.832 0 3.266 1.76 6.531 5.807 10.771 4.475 4.69 4.993 5.513 4.993 7.935 0 2.595 1.287 4.193 4.592 5.701 5.817 2.655 10.171 12.612 7.648 17.491-.352.681-.642 2.011-.644 2.957-.002.986-.429 2.633-1 3.86-.579 1.244-.996 2.865-.996 3.874 0 .955-.359 3.232-.797 5.061-.439 1.829-.799 4.599-.8 6.155-.003 2.542-.11 2.929-1.055 3.8-1.588 1.465-2.221 3.262-1.803 5.122.353 1.574-1.31 6.424-2.955 8.615-.77 1.025-2.072.443-3.406-1.521-2.019-2.97-3.561-2.08-5.287 3.054-1.718 5.111-3.683 7.187-8.07 8.526-4.074 1.243-4.252 1.32-11.789 5.105-9.632 4.838-11.638 7.444-11.638 15.122v4.879l-1.6 2.915-1.6 2.915v6.119c-.001 6.336-.611 10.67-1.898 13.47-.437.953-.752 3.094-.919 6.249-.163 3.07-.506 5.449-.954 6.6-1.56 4.01-.951 10.639 1.135 12.37 2.027 1.682 3.26-3.099 2.166-8.395-.58-2.812-.023-4.525 1.664-5.113 1.796-.626 2.006-.04 2.006 5.612 0 2.813.176 5.882.391 6.82.823 3.595 1.038 5.762.721 7.278-.256 1.22-.115 2.251.627 4.6 2.178 6.892 2.208 9.315.17 13.389-1.279 2.555-1.242 2.892.56 5.134.788.981.885 1.59.926 5.8.03 3.116.229 5.043.587 5.705 1.081 1.999 4.141 5.011 5.724 5.636 1.641.647 2.694 1.686 2.694 2.657 0 1.144 2.656 3.987 4.967 5.318 4.118 2.37 5.362 3.763 7.7 8.613 2.406 4.994 3.473 6.196 6.333 7.133 3.456 1.133 5.08 2.292 6.365 4.543.884 1.549 1.541 2.205 2.539 2.534 2.031.671 2.829 2.591 2.109 5.078-1.819 6.288 2.161 13.288 7.555 13.288 1.403 0 3.202.743 3.303 1.364.039.24.092 1.786.117 3.436.037 2.453.251 3.396 1.172 5.172 2.591 4.995.241 7.62-6.826 7.626-5.708.004-12.5 3.712-15.583 8.507-2.018 3.139-2.101 5.517-.461 13.295.505 2.397 3.085 7.696 4.265 8.762.464.418 1.609 1.856 2.544 3.194 3.727 5.331 6.873 7.995 11.101 9.403 2.09.695 4.507 1.799 5.371 2.453.864.653 1.722 1.188 1.906 1.188.184 0 2.087 1.773 4.229 3.939 4.212 4.261 5.752 12.966 12.477 14.25 61.168 46.91 87.805 12.651 95.013 9.971 9.403-2.13 6.297-18.17 6.336-22.332.03-3.236-2.853-7.49-5.454-8.048-3.121-.67-8.859-3.934-11.544-6.566-7.133-6.992-8.36-7.597-12.44-6.135-4.051 1.452-6.876.173-8.444-3.823-.594-1.515-1.723-3.812-2.507-5.105-1.381-2.275-1.421-2.45-1.226-5.412.229-3.468.153-3.65-3.571-8.617-4.832-6.444-10.403-9.029-20.946-9.719-15.54-1.017-16.414-1.315-20.273-6.906-1.358-1.967-2.908-2.69-5.777-2.695-.797-.001-2.215-.272-3.15-.602-3.867-1.364-8.402-.397-10.523 2.243-.599.746-1.273 1.582-1.499 1.857-1.244 1.518-3.432.609-5.646-2.346-3.822-5.102-3.974-5.439-3.698-8.188l.245-2.435-2.092-1.665c-1.15-.917-2.325-1.666-2.61-1.666-3.409 0-2.653-7.015 1.2-11.134 2.272-2.429 2.268-2.825-.063-5.317-3.334-3.564-4.457-3.983-13.643-5.091-3.807-.46-3.99-1.055-1.671-5.458 1.758-3.337 1.859-3.893 1.054-5.807-.377-.897-.442-1.745-.21-2.746 1.507-6.479-.502-8.587-6.318-6.635-4.353 1.461-5.514.146-5.06-5.731.226-2.941.15-3.424-.968-6.136-1.749-4.246-1.824-4.949-.89-8.345.454-1.65 1.056-4.17 1.339-5.6.947-4.805 1.749-5.721 7.005-8 4.324-1.876 5.34-1.955 7.376-.571 2.099 1.426 3.647 1.569 6.435.596 4.021-1.404 5.375-.805 8.257 3.655 1.355 2.096 3.78 4.343 5.93 5.493.755.405.85.803.85 3.581 0 1.72.205 3.714.455 4.433.347.995.334 1.949-.054 4.006-1.05 5.567 3.284 10.607 5.36 6.232.352-.74.639-1.517.639-1.725 0-.209.507-1.082 1.128-1.94 1.517-2.099 2.072-3.842 2.073-6.52.003-3.132.886-4.4 4.256-6.11 3.113-1.579 8.233-4.716 11.028-6.755 1.983-1.447 2.093-1.633 5.962-10.069 2.501-5.452 2.577-5.506 7.831-5.506 3.853 0 4.277-.268 6.227-3.938 1.974-3.716 4.553-4.424 8.982-2.465 3.036 1.343 6.821.862 9.776-1.242.666-.474 2.319-1.205 3.674-1.625 8.264-2.562 9.204-7.13 1.467-7.13-2.457 0-4.017-.173-4.324-.48-1.625-1.625.855-2.745 5.388-2.434 4.276.293 4.941.08 7.715-2.47 2.674-2.459 3.535-2.952 7.345-4.203 3.936-1.294 6.532-5.08 7.698-11.225 1.258-6.633-.695-9.188-7.024-9.188-1.505 0-2.044-.206-2.878-1.1-2-2.144-2.095-2.625-1.97-9.964.133-7.745-.025-8.213-2.948-8.761-1.829-.343-2.636.343-3.813 3.243-1.957 4.82-6.76 1.036-6.784-5.344-.011-2.944-.253-3.492-2.919-6.587-3.952-4.589-6.218-3.822-8.072 2.732-.37 1.31-1.111 3.832-1.646 5.605-1.126 3.734-1.196 5.276-.383 8.398.946 3.632-1.068 6.578-4.499 6.578-4.085 0-6.289 1.346-6.876 4.2-.136.663-.504 1.2-.822 1.2-.317 0-.908-.54-1.313-1.2-5.838-9.493-6.679-11.287-6.679-14.252 0-2.455-.014-2.486-2-4.311-2.632-2.42-2.31-6.037.536-6.037 1.437 0 5.334-3.195 6.447-5.285 1.964-3.687 3.215-4.715 5.734-4.715 6.158 0 8.202-1.927 7.272-6.857-.276-1.464-.385-3.446-.241-4.403.143-.957.368-2.416.5-3.242.395-2.474-.162-4.117-2.666-7.861-2.653-3.966-2.715-4.217-1.582-6.437 2.567-5.031-.113-8.635-5.644-7.592-3.846.726-4.397.244-3.387-2.965.59-1.875.614-2.349.162-3.171l-1.451-2.642c-1.54-2.806.777-5.008 4.253-4.042 6.49 1.803 8.789-1.775 4.355-6.776-4.556-5.139-5.527-6.423-6.109-8.073-1.24-3.512-3.476-4.475-5.971-2.572-1.523 1.162-1.838.995-2.757-1.456-2.285-6.093-7.182-4.956-8.989 2.089-1.449 5.65-2.319 6.579-4.302 4.596l-1.059-1.059.289-6.394.29-6.393-1.455-2.192c-1.194-1.797-1.411-2.427-1.209-3.504.857-4.564-3.812-9.454-9.027-9.454-1.351 0-2.316-1.065-2.962-3.268-.746-2.542-1.798-3.015-5.276-2.369-2.038.379-3.043.398-3.877.074-1.304-.506-1.591-.504-3.459.033m96.782 36.113c-4.314.782-5.346 1.84-5.803 5.95-.143 1.283-.629 3.353-1.08 4.6-1.118 3.092-1.116 7.192.005 9.937.465 1.138.968 3.028 1.118 4.2.149 1.171.517 2.616.817 3.21.3.594.546 1.712.546 2.485 0 1.638.788 2.5 3.876 4.243 2.885 1.628 4.619 5.192 2.527 5.192-.661 0-1.659 2.389-1.387 3.32 1.443 4.945 2.587 6.862 4.757 7.968.895.456 2.837 1.626 4.317 2.6 1.479.974 3.319 1.945 4.087 2.157 2.157.595 3.66 2.127 5.723 5.831 2.03 3.645 2.841 4.398 4.045 3.753 1.249-.668 2.782-5.762 3.258-10.829.155-1.65.668-3.952 1.139-5.115 1.383-3.409 1.071-6.157-1.223-10.786-1.21-2.442-1.225-2.536-.606-4 1.18-2.795 1.359-3.842.97-5.668-.29-1.362-.212-2.516.334-4.907l.714-3.126-3.235-3.005c-2.073-1.926-3.325-3.416-3.486-4.147-.138-.628-1.021-2.2-1.962-3.494-.942-1.294-2.192-3.113-2.778-4.041-1.395-2.21-5.356-4.75-8.27-5.302-1.21-.23-2.83-.621-3.6-.87-2.068-.668-1.992-.665-4.803-.156m43.683 28.697c-.264.264-.48.678-.48.92 0 .243-.725 1.557-1.611 2.92-1.934 2.976-3.076 3.265-4.79 1.211-1.328-1.591-1.963-1.378-3.395 1.136-2.116 3.716-1.545 6.771 1.196 6.395 2.138-.293 3.529.865 4.248 3.538.653 2.429.927 2.6 4.152 2.6 3.983 0 4.421-.741 5.081-8.6.695-8.265.761-7.764-1.212-9.275-1.873-1.434-2.448-1.586-3.189-.845m-59.586 8.428c-.903.491-2.689 1.457-3.968 2.148-4.161 2.248-4.651 4.221-1.672 6.728 1.382 1.163 1.942 2.772 1.955 5.613.009 2.173 1.108 5.036 2.502 6.52.605.645.956 1.717 1.179 3.6.717 6.053.943 7.507 1.243 7.983.965 1.536 4.13-.714 5.047-3.588.286-.897 1.095-1.98 2.039-2.727 2.151-1.704 2.607-3.505 2.048-8.095-.471-3.87-.803-4.506-4.396-8.424-2.614-2.851-3.271-4.338-3.271-7.404 0-3.092-.517-3.542-2.706-2.354m-96.947 1.386c-2.548 2.779-3.699 6.754-2.347 8.106 1.481 1.481 4 .946 4-.849 0-.64.292-2.214.65-3.499 1.026-3.693-.331-5.908-2.303-3.758m192.933 6.186c-.623.623-.57 4.9.084 6.72.604 1.682 1.836 2.386 4.187 2.394 1.181.004 2.419.381 3.8 1.158 1.127.634 2.714 1.27 3.526 1.414 1.155.205 2.015.849 3.935 2.948 5.101 5.574 7.117 5.253 6.987-1.114-.164-8.091-2.935-10.71-11.863-11.214-4.673-.264-5.232-.382-7.249-1.536-2.434-1.393-2.72-1.457-3.407-.77m6.92 14.668c-3.899 2.422-4.732 7.12-1.393 7.854.633.139 1.816.78 2.627 1.425 3.9 3.099 8.041-1.187 4.434-4.589-.758-.715-1.449-1.843-1.605-2.621-.535-2.677-1.936-3.39-4.063-2.069m72.307 14.055c-4.731 1.681-5.707 3.229-5.707 9.05 0 3.058-.829 7.014-1.691 8.063-1.993 2.428-5.942 3.503-8.919 2.426-1.596-.577-4.81 1.599-7.129 4.826-.803 1.118-2.388 2.699-3.522 3.514-2.231 1.603-4.67 5.002-5.772 8.044-1.179 3.257-2.514 5.818-3.963 7.605-.977 1.205-1.404 2.136-1.404 3.061 0 3.168-1.533 8.979-2.993 11.344-3.297 5.341-3.07 8.411.836 11.296 3.306 2.442 4.092 6.401 2.612 13.168-.822 3.761-.228 9.211 1.403 12.88 1.329 2.991 1.351 3.124.756 4.549-1.131 2.707-.827 4.466 1.376 7.955 1.094 1.733 2.383 4.334 2.864 5.779 2.211 6.644 7.034 6.219 15.146-1.336 1.669-1.554 6.332-4.627 7.023-4.627.758 0 2.912-2.081 3.39-3.276 1.031-2.572 2.699-4.522 5.044-5.899 4.381-2.572 5.533-3.722 6.102-6.089 1.007-4.19 26.79.298 27.195-2.067 14.054-45.272.248-79.427-16.792-92.66-.424-2.234-11.845.968-15.855 2.394" fill="#a1a1a1" fill-rule="evenodd"/>
    </g>
    <g fill="#fff" stroke="#3b80ae" stroke-width="2.459">
        <path d="M112.48 74.67c1.814 6.95-2.35 14.053-9.3 15.866L61.236 101.48c-6.95 1.813-14.053-2.351-15.867-9.302l-6.565-25.166c-1.813-6.95 2.351-14.053 9.3-15.866L90.05 40.204c6.95-1.814 14.053 2.35 15.866 9.3l6.566 25.166z" stroke="#bababa" stroke-width="2.168"/>
        <path d="M108.22 73.773c1.542 6.923-1.6 12.007-8.378 13.616l-37.23 9.714c-6.672 2.112-12.42-1.041-13.96-7.789L43.065 67.91c-1.542-7.18.625-11.361 8.377-13.616l37.23-9.713c7.18-1.61 12.42 1.201 13.962 7.788z" fill="#3b80ae" stroke="none"/>
        <path d="M77.454 84.364L58.557 66.125l33.585-3.872z" opacity=".5" fill="none" stroke="#fff" stroke-width="2.168"/>
        <path d="M101.063 64.069a2.559 2.559 0 0 1-1.829 3.121l-10.87 2.836a2.56 2.56 0 0 1-3.122-1.83l-2.023-7.758a2.559 2.559 0 0 1 1.83-3.122l10.869-2.836a2.56 2.56 0 0 1 3.122 1.83l2.023 7.758zm-31.57 4.281a3.137 3.137 0 0 1-2.243 3.825L53.929 75.65a3.136 3.136 0 0 1-3.826-2.242l-2.48-9.508a3.136 3.136 0 0 1 2.242-3.825L63.187 56.6a3.135 3.135 0 0 1 3.825 2.242l2.48 9.508zm14.089 17.261a1.757 1.757 0 0 1-1.257 2.144l-7.464 1.946a1.757 1.757 0 0 1-2.143-1.257l-1.39-5.326a1.759 1.759 0 0 1 1.256-2.144l7.465-1.947a1.757 1.757 0 0 1 2.143 1.257l1.39 5.326z" stroke-width="2.168"/>
    </g>
</svg>
